bn:00165672n,manufacturer
bn:03474130n,standardized_test_method
bn:00015425n,device
picture_acquisition,acquisition
century_device,device
bn:00466634n,secure_storage_container
tube_device,device
bn:00042837n,craft
electricity,equipment
long-range_airborne_navigation_system,airborne_navigation_system
bn:00071301n,protective_equipment
physical_box,box
bn:02795723n,mobile_eye_diagnostic_device
wheeled_military_vehicle,military_vehicle
delivery_vehicle,vehicle
philatelic_material,material
bn:00784257n,british_vehicle_maker
bn:03572568n,vehicle
motor_vehicle,vehicle
bn:03447125n,british_truck_manufacturer
vehicle_manufacturing_company,manufacturing_company
rigid_cylindrical_container,cylindrical_container
german_multinational_manufacturer,multinational_manufacturer
specialized_firefighting_apparatus,firefighting_apparatus
bn:00637982n,apparatus
bn:00582812n,offroad_technology
drive_all-terrain_vehicle,all-terrain_vehicle
bn:02204625n,apparatus
instrumentation_system,system
commodity_cargo,cargo
bn:01226418n,large_dump_truck
digital_datalink_system,datalink_system
bn:01070752n,sensor
bn:01045186n,device
bn:03350131n,optical_device
sleeveless_garment,garment
bn:00034214n,flexible_medical_instrument
bn:00034214n,flexible_fiber
thin_cushioned_material,cushioned_material
bn:01490463n,integrated_tool
polish_truck_manufacturer,truck_manufacturer
specification,equipment
horse_delivery_system,delivery_system
bn:01575194n,machine
small_wooden_fitting,wooden_fitting
era_artillery_tractor,artillery_tractor
bn:00444412n,current_transformer
photographic_instrument,instrument
bn:03449025n,measuring_device
bn:00059215n,instrument
bn:00293667n,mechanical_device
bn:01654331n,small_electronic_device
armored_multirole_transport_vehicle,multirole_transport_vehicle
electronic_management_device,management_device
chassis,equipment
bn:03551250n,experimental_measuring_instrument
aid,equipment
heavy-duty_commercial_vehicle,commercial_vehicle
art_device,device
light-collection_device,device
bn:02303149n,closed-circuit_breathing_apparatus
bn:00003792n,device
lawn_tractor,tractor
soft_squeezable_container,squeezable_container
military,equipment
metal_belt,belt
bn:00034648n,naval_weaponry
bn:03886045n,electronic_device
mobility,equipment
sunluxy_ccv_cam,ccv_cam
bn:00043151n,haulier_called_haulage_contractor
manufactured_off-road_vehicle,off-road_vehicle
bn:01305545n,simple_device
bn:00936689n,steam-powered_road_vehicle
large_gantry_crane,gantry_crane
unit,equipment
bn:00059220n,astronomical_telescope
personnel_carrier,carrier
commercial_truck,truck
bn:01270382n,tractor_unit
cargo_ships,ships
image_sensor,sensor
bn:03540094n,electronic/optical_instrument
bn:00485981n,artillery_tractor
type,equipment
simple_computing_device,computing_device
electronic_device,device
bn:00066844n,laboratory_device
bn:00066844n,optical_instrument
bn:01050864n,laboratory_equipment
bn:03162346n,large_camera_pod
bn:01564127n,cargo
bn:03512289n,german_armored_military_mobility_vehicle
bn:00648258n,sensor_system
room,equipment
bn:03133104n,alarm_device
navigation_tool,tool
bn:00042936n,combat_helmet
bn:00042936n,lightweight_protective_helmet
standard_freight_container,freight_container
bn:00791037n,device
armored_military_vehicle,military_vehicle
bn:00024099n,container
×_mine-protected_armored_personnel_carrier,mine-protected_armored_personnel_carrier
armored_drive_vehicle,drive_vehicle
bn:00067985n,steam-powered_road_roller
bn:00067985n,heavy_engineering_vehicle
bn:00067985n,type_engineering_vehicle
small_unmanned_aerial_vehicle,unmanned_aerial_vehicle
secure_lockable_box,lockable_box
bn:03252912n,military_vehicle
porous_sealed_bag,sealed_bag
machine,equipment
bn:00932944n,cargo
surveying_instrument,instrument
bn:00027358n,device
french_artillery_tractor,artillery_tractor
mail_delivery,delivery
weaponry,equipment
bn:00557035n,tool
service_apparatus,apparatus
bn:00566859n,solid_coupling
bn:03317848n,electronic_test_equipment
bn:01153407n,detection_instrument
bn:00344256n,exclusive_technology
bn:00029421n,plug
bn:00029421n,device
defunct_collection_device,collection_device
bn:01212551n,cockpit_display_system
bn:03130378n,container
pitot_tube,tube
bn:02023596n,device
small_porous_sealed_bag,porous_sealed_bag
bn:00053682n,analytical_technique
bn:00053682n,optical_instrument
modified_refracting_telescope,refracting_telescope
armored_capsule-based_bulletproof_vehicle,capsule-based_bulletproof_vehicle
wearable_device,device
bn:00324939n,device
electrical_hot-spot_imaging_device,hot-spot_imaging_device
bn:03143980n,technology
bn:03565781n,sound_recording_apparatus
bn:01145324n,lens_manufacturing_company
analytical_technique,technique
non-magnifying_optical_device,optical_device
bn:00024175n,device
bn:01208655n,japanese_automotive_manufacturer
bn:03462025n,major_discipline
bn:00080685n,instrument
radio_receiver,receiver
radar_display,display
landing_system,system
pressure_suit,suit
bn:03580472n,half-track_artillery_tractor
belarusian_manufacturer,manufacturer
bn:03596872n,long-lived_vehicle
bn:02936898n,image_sensor
bn:00248772n,device
open-source_autopilot_system,autopilot_system
temperature_recording_system,recording_system
type_tank_chassis,tank_chassis
navigational_system,system
mexican_bag_manufacturer,bag_manufacturer
new_packaging_technology,packaging_technology
band,equipment
integrated_system,system
bn:00054781n,optical_instrument
bn:00040909n,protective_eyewear
bn:00649028n,small_handheld_device
rear-drag_reduction_device,reduction_device
bn:02438521n,electronic_device
manufacturing_unit,unit
bn:00448042n,device
bn:00001663n,vehicle
bn:00955731n,specialized_road_vehicle
bn:00059843n,garment
bn:00059843n,denim
bn:00059843n,work_clothing
bn:00029403n,radar_system
boxlike_container,container
visual_sensor,sensor
cylinder_system,system
bn:02188564n,device
telescope,equipment
garment,equipment
bn:01624813n,telescope
bn:03865882n,flail-type_demining_vehicle
norwegian_manufacturer,manufacturer
bn:01158295n,surveillance_technology
laboratory,equipment
engineering_field,field
bn:00487762n,standard_freight_container
demining_vehicle,vehicle
bn:00561577n,system
bn:02088634n,suit
moving_belt,belt
terrestrial_navigation_system,navigation_system
crop_tractor,tractor
bn:02432113n,light-collection_device
postal_operator,operator
heavy_road_vehicle,road_vehicle
bn:00674289n,container
michigan_based_truck_manufacturer,based_truck_manufacturer
bn:03790123n,switching_device
bench_system,system
bn:01791586n,hardware
laborer,equipment
forestry_vehicle,vehicle
automobile_manufacturing_company,manufacturing_company
bn:01550699n,innovative_camera_manufacturing_company
passive_electrical_hot-spot_imaging_device,electrical_hot-spot_imaging_device
national_postal_operator,postal_operator
bn:00069690n,counter_tube
powered_industrial_truck,industrial_truck
mechanical_electrical_system,electrical_system
system,equipment
bn:00064902n,square_tool
bn:00182407n,vehicle
bn:03808508n,device
navigational_instrument,instrument
bn:03130474n,dome-shaped_magnifying_device
bn:00015008n,device
bn:00015008n,equipment
bn:00015014n,optical_device
reconnaissance_device,device
bn:00017085n,device
special_packaging,packaging
bn:00167701n,device
bn:03267138n,heavy_equipment_vehicle
bn:03267138n,multi-purpose_tractor
bn:03078226n,service_apparatus
century_armor,armor
tool,equipment
bn:03609959n,short-path_vacuum_distillation_apparatus
laboratory_equipment,equipment
haulier_called_haulage_contractor,called_haulage_contractor
object-detection_system,system
protective_equipment,equipment
bn:02804351n,device
bn:02341901n,ex-soviet_astronomy_installation
collision_avoidance_system,avoidance_system
continuous_flexible_band,flexible_band
bn:01809794n,device
bn:03291234n,image_sensor
sensor_system,system
bn:00865296n,medical_device
bn:00865296n,device
oxygen_sensor,sensor
heating_device,device
acquisition,equipment
panel-mounted_capable_long-range_airborne_navigation_system,capable_long-range_airborne_navigation_system
bn:00004603n,flight_suit
air-transportable_armored_multirole_transport_vehicle,armored_multirole_transport_vehicle
heavy_transporter_vehicle,transporter_vehicle
control_system,system
personnel_armor,armor
bn:00053683n,analytical_technique
fitting,equipment
plenoptic_camera,camera
bn:00024568n,thin_cushioned_material
bn:01403755n,class_commercial_vehicle
rapid_response_vehicle,response_vehicle
bn:03582300n,ccd_imaging_sensor
bn:00076821n,precision_instrument
bn:00076821n,instrument
bn:00076821n,surveying_instrument
bn:00134000n,heavy_forestry_vehicle
detection_technology,technology
general-purpose_armored_drive_vehicle,armored_drive_vehicle
all-terrain_vehicle,vehicle
based_equipment_manufacturer,equipment_manufacturer
lockable_box,box
bn:02239181n,aircraft
heavy-duty_commercial_truck,commercial_truck
combat_vehicle,vehicle
bn:03308385n,optical_device
indian_multinational_automotive_manufacturing_company,multinational_automotive_manufacturing_company
sensitive_imaging_system,imaging_system
bn:00372854n,rapid_response_vehicle
gauge,equipment
solid-state_device,device
bn:03527107n,electronic_device
tactical_military_vehicle,military_vehicle
bn:03242949n,electronic_picture_acquisition
bn:00719688n,airflow_technician
long-lived_vehicle,vehicle
measurement_system,system
bn:01544142n,artillery_tractor
bn:00048187n,simple_small_magnification_device
bn:00229488n,railroad_car
bn:00001662n,fire_apparatus
bn:00001662n,vehicle
air_cargo,cargo
plate,equipment
hand_tool,tool
bn:01273999n,ukrainian_multi-purpose_off-road_vehicle
bn:03452737n,optical_device
bn:03452737n,optical_instrument
pick-up_truck,truck
bn:00057136n,orthopedic_device
bn:00057136n,orthopedic_medical_device
semi-amphibious_off-road_vehicle,off-road_vehicle
bn:02485479n,packaging_technology
method,equipment
bag,equipment
off-road_vehicle,vehicle
bn:00065948n,device
bn:03184784n,clothing
bn:03136139n,measuring_instrument
bn:03136139n,electronic_instrument
bn:00173186n,all-in-one_plating_system
bn:02892046n,system
processing_device,device
bn:03626781n,system
optical_amplification,amplification
compound_lens_system,lens_system
production_line,line
standardized_test_method,test_method
propulsion,equipment
bn:00985009n,sensor
bn:00720490n,deck_display_system
bn:00006135n,large_truck
bn:00006135n,truck
bn:00006135n,articulated_vehicle
russian_all-road_military_truck,all-road_military_truck
cylindrical_metal_container,metal_container
search_device,device
measuring_device,device
bn:01621638n,electronic_device
component,equipment
bn:01660861n,official_national_postal_operator
bn:01927922n,technical_device
bn:00051752n,service_facility
czech-american_global_manufacturer,global_manufacturer
radio_transmitter,transmitter
large_dump_truck,dump_truck
roller,equipment
sperry,equipment
mechanical_device,device
hollow_cylindrical_container,cylindrical_container
underwater_rebreather,rebreather
portable_tabletop_small_appliance,tabletop_small_appliance
bn:00319208n,vehicle
receiver,equipment
worldwide_manufacturer,manufacturer
measurement_instrument,instrument
electronic_picture_acquisition,picture_acquisition
improvised_reflective_surface,reflective_surface
bn:00007364n,navigational_device
bn:00007364n,mechanical_electrical_system
bn:00007364n,system
tone,equipment
bn:00066568n,military_vehicle
bn:00066568n,armored_reconnaissance_vehicle
counting_system,system
british_vehicle,vehicle
bn:01555675n,test_equipment
bn:00526574n,device
machinery_manufacturer,manufacturer
french_tractor_manufacturer,tractor_manufacturer
bn:00034636n,device
bn:01419290n,united_states_transportable_vehicle
cardboard,equipment
aerodynamic_semi_truck,semi_truck
bn:03878837n,device
technologically-advanced_processing,processing
traffic_control,control
bn:00076877n,device
bn:00015022n,motor_vehicle
iranian-based_manufacturer,manufacturer
plate_armor,armor
counter_instrument,instrument
polish_multi-purpose_pick-up_truck,multi-purpose_pick-up_truck
firefighting_apparatus,apparatus
craft,equipment
bn:03874943n,manufacturer
united_states_transportable_vehicle,states_transportable_vehicle
bn:00075850n,device
bn:03448255n,device
tank,equipment
recording_apparatus,apparatus
bn:01606331n,digital_datalink_system
bn:03817866n,armored_personnel_carrier
serbian_truck_manufacturer,truck_manufacturer
bn:00065497n,measuring_device
bn:01935534n,tool
multi-purpose_off-road_vehicle,off-road_vehicle
bn:00570205n,specialized_firefighting_apparatus
procedure,equipment
heavy_equipment_machine,equipment_machine
bn:01893418n,commercial_vehicle
bn:01102625n,device
german_bus_manufacturer,bus_manufacturer
semiconductor_device,device
bn:00743061n,warehouse
bn:02856830n,device
optical_sensor_system,sensor_system
portable_measurement_instrument,measurement_instrument
bn:00979484n,trailer
overhead_crane,crane
bn:03176993n,clothing
bn:00026424n,pressure_gauge
bn:00026424n,gauge
hand,equipment
bn:02181638n,ground_based_planet_search_device
bn:01183133n,oxygen_sensor
bn:01571746n,device
alarm_signal,signal
flow_technique,technique
bn:03828285n,laboratory_equipment
india_first_armored_capsule-based_bulletproof_vehicle,first_armored_capsule-based_bulletproof_vehicle
freight_container,container
bn:01208983n,system
bn:00015013n,optical_device
tracked_articulated_transport_vehicle,articulated_transport_vehicle
pressure_cylinder_system,cylinder_system
heavy_forestry_vehicle,forestry_vehicle
high-mobility_multipurpose_military_vehicle,multipurpose_military_vehicle
filtration_device,device
porous_bag,bag
bn:02418864n,sensor
british_3-wheeled_tractor_unit,3-wheeled_tractor_unit
passive_device,device
medical_laboratory_instrument,laboratory_instrument
bn:00063769n,mechanical_device
transformer,equipment
calf-length_boot,boot
boot,equipment
mask,equipment
bn:03867629n,optical_device
board,equipment
bn:02286241n,armored_logistics_vehicle
small_industrial_vehicle,industrial_vehicle
bn:03037881n,american_avionics_manufacturer
bn:02902684n,primary_combat_helmet
bn:01677258n,device
bn:00012524n,container
electrical_device,device
airflow_technician,technician
bn:00431406n,laboratory_equipment
bn:00963751n,material
harvester_manufacturer,manufacturer
russian_high-mobility_multipurpose_military_vehicle,high-mobility_multipurpose_military_vehicle
bn:03767774n,truck
bn:00254431n,laboratory_equipment
small_device,device
passive_radar_receiver,radar_receiver
bn:02547591n,plenoptic_camera
bn:00950224n,optical_device
vacuum_tube,tube
loose_one-piece_garment,one-piece_garment
test_method,method
scientific_instrument,instrument
bn:02447596n,light_commercial_truck
bn:00657991n,safety_device
official_national_postal_operator,national_postal_operator
bn:03338243n,device
bn:00847087n,engineering
bn:00157374n,device
kitchen_utensil,utensil
bn:03468074n,gyroscopic_device
bn:01236834n,technology
bn:01987108n,public_communications_system
bn:01235670n,electronic_sensor
bn:01084265n,united_wagon_manufacturer
celestial_navigation_device,navigation_device
bn:00579852n,protective_head_gear
military_truck,truck
bn:03604594n,specialized_apparatus
national_operator,operator
portable_detection_device,detection_device
bn:02537784n,non-magnifying_gun_sight
manufacturing,equipment
glassware_device,device
plug,equipment
major_manufacturer,manufacturer
bn:00974024n,british_agricultural_tractor
bn:01295080n,german_manufacturer
reality_system,system
laboratory_tool,tool
bn:00046478n,device
diesel-electric_commercial_truck,commercial_truck
bn:03382213n,japan-based_manufacturer
bn:03295555n,mechanical_device
bn:02866096n,maintenance_equipment
bn:00585298n,device
american_truck_manufacturer,truck_manufacturer
facility,equipment
bn:00014782n,device
bn:00487595n,artillery_tractor
surveillance_device,device
bn:03610370n,device
bn:03610370n,electro-mechanical_device
bn:03190563n,device
avionics_manufacturer,manufacturer
domed_telescope_facility,telescope_facility
current_combat_helmet,combat_helmet
bn:00074523n,device
engineering_vehicle,vehicle
bn:03242413n,vehicle
bn:01295057n,nationwide_warning_system
current_transformer,transformer
bn:01322094n,scientific_instrument
bn:02540758n,automobile_manufacturing_company
power_optimized_hardware,optimized_hardware
fire_apparatus,apparatus
bn:01725861n,glove
gas_sensor,sensor
bn:02519319n,radio_transmitter
bn:01193396n,process
bn:00080761n,weather_surveillance
based_manufacturer,manufacturer
bn:03007162n,purpose-built_truck
bn:03093872n,device
bn:01337738n,installation
handheld_collapsible_canopy,collapsible_canopy
bn:00030237n,vacuum_tube
bn:01836052n,fundamental_part
non-contacting_device,device
bn:00028670n,unconsolidated_material
bn:00019257n,large_container
bn:03850870n,technology
bn:03730337n,instrument
integrating_device,device
bn:03517271n,czech-american_global_manufacturer
armored_military_mobility_vehicle,military_mobility_vehicle
ship,equipment
imaging_technique,technique
bn:00860350n,short-range_bus_specification
bn:00059218n,optical_device
bn:00481896n,specialised_packing_material
flux_sensor,sensor
military_transport_vehicle,transport_vehicle
bn:03152404n,device
bn:00015012n,optical_lens
warehouse,equipment
depot,equipment
brazilian_manufacturer,manufacturer
bn:02198217n,multipurpose_military_armored_vehicle
bn:01206180n,packaging_technology
bn:02752434n,instrument
bn:01747201n,company
bn:00499448n,detection_technology
lightweight_protective_helmet,protective_helmet
bn:00014907n,measuring_instrument
bn:00014907n,apparatus
service_facility,facility
transporter,equipment
bn:01055500n,special_packaging
bn:00575851n,machinery
multipurpose_military_vehicle,military_vehicle
astronomical_facility,facility
italian_manufacturer,manufacturer
bn:01132686n,laboratory_device
bn:01757392n,optical_apparatus
bn:01764828n,device
short-path_vacuum_distillation_apparatus,vacuum_distillation_apparatus
bn:00983729n,vehicle_manufacturing_company
bn:00063424n,medical_instrument
road_roller,roller
telescope_research_facility,research_facility
french_freight_operator,freight_operator
amplification,equipment
bn:03740510n,pressure_cylinder_system
bn:02556416n,one-piece_container
technique,equipment
rotating_file_device,file_device
bn:00076407n,mechanical_assembly
historical_facility,facility
bn:03186995n,apparatus
soviet_artillery_tractor,artillery_tractor
integrated_tool,tool
computer_device,device
bn:00043152n,transport
bn:00043152n,haulier_called_haulage_contractor
bn:00013908n,gas_burner
bn:00255652n,mexican_bag_manufacturer
deck_display_system,display_system
bn:01771714n,manufacturing
bn:01569599n,sensor
radio_dish_antenna,dish_antenna
bn:00032385n,device
bn:00032385n,instrument
bn:00032385n,photographic_equipment
bn:00078520n,conduit
bn:00078520n,soft_squeezable_container
bn:00711748n,japanese_manufacturer
bn:03666623n,class_heavy-duty_truck
camera_pod,pod
bn:03605157n,method
greek_manufacturer,manufacturer
bn:01142975n,laboratory_apparatus
bn:00080611n,device
major_projection_generation_technology,projection_generation_technology
laboratory_glassware,glassware
cargo,equipment
purpose-built_truck,truck
bn:00182141n,electronic_device
cockpit_system,system
bn:01283672n,soviet_era_artillery_tractor
cap,equipment
porous_kraft_paper,kraft_paper
large_truck,truck
british_agricultural_tractor,agricultural_tractor
bn:00471759n,research_facility
bn:00069830n,hand_tool
bn:00006162n,instrument
bn:00006162n,navigational_instrument
cylindrical_container,container
chemistry_apparatus,apparatus
wooden_board,board
bn:03624805n,control_equipment
bn:00026638n,converter
bn:00026638n,organ
box,equipment
bn:02819472n,prime_mover_vehicle
bn:02857313n,open-source_autopilot_system
navigation,equipment
ton_×_utility_vehicle,×_utility_vehicle
bn:00747176n,radio_dish_antenna
bn:00022130n,cargo_ships
monitoring_device,device
bn:00948177n,electronic_test_equipment
bn:00015892n,rigid_container
opto-mechanical_device,device
bn:00202311n,tracked_articulated_transport_vehicle
viscosity_measurement_device,measurement_device
bn:00183332n,automation_system
bn:03149824n,device
personal_protective_equipment,protective_equipment
flight_suit,suit
projector,equipment
bn:00761020n,engineering_field
lens_system,system
bn:02194543n,air_traffic_control
small_lightweight_wheel_drive,lightweight_wheel_drive
bn:00009311n,simple_container
protective_padded_gear,padded_gear
bn:03475590n,packaging
bn:02597667n,signal_generator
packaging_technology,technology
common_piece,piece
bn:00876903n,protective_gear
texas-based_manufacturer,manufacturer
bn:01287680n,heavy_transporter_vehicle
heavy_vehicle_tractor,vehicle_tractor
navigation_system,system
car,equipment
bn:00056059n,automotive_vehicle
bn:00056059n,large_motor_vehicle
bn:00056059n,type
bn:00056059n,motor_vehicle
bn:00071086n,equipment
bn:00071086n,stiff_protective_garment
autopilot_system,system
bn:00863087n,small_unmanned_aerial_vehicle
cam,equipment
steam-powered_road_roller,road_roller
bn:00347409n,specialized_aircraft_rescue_vehicle
bn:02121105n,libyan_manufacturer
bn:03793025n,device
bn:01824966n,technology
bn:02146820n,device
bn:00077858n,engineering_vehicle
bn:00030188n,method
multi-purpose_tractor,tractor
bn:01188466n,patented_style
electrical_instrument,instrument
bn:00524261n,personal_armor
bn:01815365n,electronic_device
bn:00032545n,type
bn:00032545n,corrective_lens
global_manufacturer,manufacturer
bn:01143503n,laboratory_apparatus
clothing,equipment
dump_truck,truck
style_truck,truck
secondary_scale,scale
bn:00054808n,method
bn:00054808n,system
bn:00054808n,object-detection_system
bn:00054808n,detection_system
bn:00079864n,sleeveless_upper-body_garment
bn:00079864n,ornamental_garment
bn:00079864n,sleeveless_garment
bn:00079864n,man_sleeveless_garment
mobile_eye_diagnostic_device,eye_diagnostic_device
bn:00157382n,practice
bn:00045434n,instrument
bn:01056656n,laboratory_equipment
handheld_device,device
bn:00272786n,measuring_device
bn:01592213n,multi-layer_packaging_technology
x_mine-protected_vehicle,mine-protected_vehicle
bn:03140141n,bench-top_device
bn:00046967n,ground-based_approach_system
electronic_voltmeter,voltmeter
bn:03817175n,device
bn:01585701n,device
diesel_engine_manufacturer,engine_manufacturer
truck,equipment
bn:01670403n,texas-based_manufacturer
bn:01190287n,laboratory_glassware
bn:00309269n,non-contact_device
large_manufacturer,manufacturer
gas_burner,burner
bn:00010537n,loose_one-piece_garment
bn:00010537n,impermeable_garment
bn:01209580n,tool
road_vehicle,vehicle
bn:01462539n,scientific_installation
heavy-duty_truck,truck
bn:01619153n,optical_device
bn:00231219n,laboratory_apparatus
platform,equipment
bn:03230493n,device
bn:00866269n,laboratory_equipment
mail,equipment
cell_counting_system,counting_system
bn:00016049n,standardized_steel_box
bn:00016049n,large_container
bn:01975505n,device
vision_device,device
bn:03178621n,tool
bn:01685468n,device
organ,equipment
bn:00034210n,cable
camera-based_system,system
bn:03526369n,small_lightweight_wheel_drive
large_motor_vehicle,motor_vehicle
bn:00041487n,measuring_instrument
cockpit_display_system,display_system
astronomy_laboratory,laboratory
wheel_drive,drive
bn:03240448n,japanese_sensor
bn:03243878n,tracked_vehicle
container,equipment
analog-to-digital_converter_system,converter_system
cloth-covered_helmet,helmet
gauge_technology,technology
bn:02885376n,multi-purpose_traffic_sensor
bn:00024217n,antique_electronic_component
tracked_tractor,tractor
small_cylindrical_container,cylindrical_container
sensor,equipment
reconnaissance_vehicle,vehicle
measuring_instrument,instrument
bn:02349033n,bus_analysis_tool
bn:02483231n,optical_instrument
composite_armored_vehicle,armored_vehicle
bn:03047297n,developed_system
british_manufacturer,manufacturer
primary_combat_helmet,combat_helmet
bn:03807827n,integrated_system
bn:01304045n,artillery_tractor
bn:03170328n,small_device
storage_container,container
footwear,equipment
bn:02490262n,combat_helmet
british_vehicle_maker,vehicle_maker
gun_sight,sight
bn:03253409n,proof
astronomical_instrument,instrument
bn:03112799n,electronic_management_device
space-based_navigation_system,navigation_system
body_garment,garment
bn:03144656n,device
bn:03151137n,german_manufacturer
innovative_camera_manufacturing_company,camera_manufacturing_company
bn:00062588n,laboratory_tool
non-magnifying_gun_sight,gun_sight
full-line_manufacturer,manufacturer
transient_imaging_system,imaging_system
simple_tool,tool
loose-fitting_protective_garment,protective_garment
squeezable_container,container
sensitive_device,device
bn:00020661n,similar_device
directional_radio_antenna,radio_antenna
battery_electric_vehicle,electric_vehicle
bn:00074723n,device
small_cardboard_box,cardboard_box
bn:02421669n,device
bn:03755289n,vehicle
bn:01375955n,british_military_vehicle
tractor,equipment
bn:01351012n,telescope_manufacturer
portable_container,container
magnification_device,device
bn:03093423n,traffic_device
bn:03256570n,aircraft_cockpit
bn:03256570n,instrumentation_system
bn:01335106n,german_manufacturer
bn:00058731n,measuring_instrument
bn:00058731n,electrical_instrument
bn:03807854n,heavy_vehicle
traffic_sensor,sensor
bn:01429412n,sensitive_imaging_system
glassware,equipment
bn:00077588n,box
bn:00077588n,storage
bn:00044942n,portable_tabletop_small_appliance
bn:01375914n,british_3-wheeled_tractor_unit
bn:00166071n,light_commercial_vehicle
track,equipment
large_camera_pod,camera_pod
bn:02085839n,heavy_equipment
bn:00079812n,small_movable_scale
bn:00079812n,additional_scale
bn:00079812n,secondary_scale
bn:00026157n,device
engine_manufacturer,manufacturer
bn:01617089n,optical_sensor_device
japanese_sensor,sensor
bn:03344751n,heavy-duty_commercial_vehicle
bn:00068790n,secure_lockable_box
bn:00068790n,reinforced_case
drive,equipment
bn:02261470n,device
bn:01445937n,technology
bn:03810002n,air-transportable_armored_multirole_transport_vehicle
bn:00074452n,large_vessel
bn:00074452n,container
bn:00071615n,structure
bn:00071615n,large_round_tower
forecasting_device,device
italian_dump_truck/lorry_manufacturer,dump_truck/lorry_manufacturer
air_traffic_control,traffic_control
bn:03819033n,truck_manufacturer
bn:01443849n,radar
shoe,equipment
breathing_apparatus,apparatus
crane,equipment
specialized_aircraft_rescue_vehicle,aircraft_rescue_vehicle
ground,equipment
eye_diagnostic_device,diagnostic_device
bn:02900207n,light_sensor
bn:03753381n,heavy-duty_commercial_truck
bn:00056268n,tool
bn:03202878n,electrical_device
military_armored_vehicle,armored_vehicle
bn:00612004n,telescope_manufacturer
outer_protective_garment,protective_garment
approach_system,system
bn:00075846n,device
russian_truck_manufacturer,truck_manufacturer
bn:00277916n,composite_armored_vehicle
heavy_equipment_vehicle,equipment_vehicle
optical_sensor_device,sensor_device
monocular_night_vision_device,night_vision_device
sonar,equipment
bn:00796704n,panel-mounted_capable_long-range_airborne_navigation_system
bn:03404607n,vacuum_tube_device
first_detection_radar,detection_radar
bn:01646822n,india_first_armored_capsule-based_bulletproof_vehicle
bn:00079606n,instrument
bn:02706948n,military_transport_vehicle
bn:03759304n,trolleybus-like_vehicle
steel_box,box
mechanical_arrangement,arrangement
ground_based_planet_search_device,based_planet_search_device
based_planet_search_device,planet_search_device
global_full-line_manufacturer,full-line_manufacturer
german_based_manufacturer,based_manufacturer
aircraft_rescue_vehicle,rescue_vehicle
printing_industry,industry
bn:01784209n,iranian_harvester_manufacturer
bn:01937980n,non-magnifying_optical_device
bn:00007333n,pressurized_device
file_device,device
bn:03402490n,specialized_vehicle
bn:02465010n,manufacturing_company
bn:00061684n,device
bn:03859927n,camera
optical_bench_system,bench_system
large_container,container
installation,equipment
chemical_sensor,sensor
bn:01591580n,material
bn:02810702n,philatelic_material
bn:00278629n,vehicle
bn:02772498n,device
bn:00228951n,laboratory_apparatus
patented_style,style
bn:03303145n,research_facility
bn:02422532n,photographic_instrument
agricultural_machinery,machinery
laboratory_apparatus,apparatus
bn:01227542n,apparatus
pod,equipment
heavy_duty_truck,duty_truck
bn:03605086n,historical_astronomical_instrument
retroreflector,equipment
bn:02767889n,gyro-stabilized_optical_instrument
simple_gravity_device,gravity_device
radiofrequency_receiver,receiver
engine,equipment
bn:00049213n,laboratory
bn:00049213n,apparatus
bn:01082401n,passive_device
bn:02813754n,helmet
bn:01601888n,commodity_cargo
case,equipment
bn:02217601n,mail
bn:00061393n,container
gas-filled_electron_tube,electron_tube
bn:03775265n,rescue_vehicle
paper-based_material,material
bn:00601219n,device
bn:00429335n,vancouver-based_canadian_manufacturer
satellite_navigation,navigation
duty_civilian_half-track_tractor,civilian_half-track_tractor
bn:02482196n,power_optimized_hardware
projection_generation_technology,generation_technology
multinational_automotive_manufacturing_company,automotive_manufacturing_company
bn:00043624n,protective_headgear
bn:00043624n,protective_gear
bn:00043624n,headgear
technology,equipment
bn:02667173n,manufacturer
helmet,equipment
bn:00006816n,clock_device
bn:01542073n,unarmoured_off-road_vehicle
multipurpose_military_armored_vehicle,military_armored_vehicle
bn:02038505n,laboratory_equipment
large_case,case
surveillance,equipment
bn:02260252n,electronic_test_equipment
bn:02513918n,flight_instrument
bn:01508750n,british_manufacturer
bn:00975920n,russian_high-mobility_multipurpose_military_vehicle
bn:00162230n,optical_device
bn:00076245n,mechanical_device
protective_head_gear,head_gear
bn:00042225n,device
bn:02907862n,combat_helmet
flight_instrument,instrument
bn:01234382n,electronic_device
bn:00533257n,radiofrequency_receiver
bn:00065192n,electronic_test_equipment
bn:00065192n,generator
bn:01544100n,electronic_test_equipment
bn:00076103n,tape_measure
bn:00076103n,measuring_instrument
money,equipment
flail-type_demining_vehicle,demining_vehicle
sub-orbital_astronomical_telescope,astronomical_telescope
bn:01140303n,historical_facility
bn:03866341n,production_line
woodworking,equipment
type_engineering_vehicle,engineering_vehicle
bn:00075847n,surveying_instrument
mail_bag,bag
generator,equipment
bn:03489360n,large_sport_utility_vehicle
bn:03140149n,refractometer
imaging_sensor,sensor
padded_helmet,helmet
instrument,equipment
bn:00445965n,diameter_deployable_passive_electrical_hot-spot_imaging_device
bn:03573940n,system
simple_device,device
bn:02879788n,organic_ophthalmic_lens_manufacturer
bn:01709339n,special_flow_technique
armored_logistics_vehicle,logistics_vehicle
bn:00004383n,indicator
optical_sensing_technology,sensing_technology
automotive_manufacturer,manufacturer
non-invasive_method,method
tracked_vehicle,vehicle
all-road_military_truck,military_truck
tank_chassis,chassis
bn:03004707n,truck_manufacturer
bn:00803615n,type_tank_chassis
bn:00005180n,protective_garment
bn:00005180n,outer_protective_garment
primitive_underwater_rebreather,underwater_rebreather
bn:02164588n,bag_manufacturer
printed_material,material
tower,equipment
ultra_dump_truck,dump_truck
cushioned_material,material
bn:01629073n,quality_control
bn:00008691n,hollow_cylindrical_container
bn:00008691n,container
maintenance_equipment,equipment
bn:03047161n,optical_instrument
bn:03123861n,vehicle
electro-mechanical_device,device
bn:00032067n,container
tube,equipment
notable_american_telescope_manufacturer,american_telescope_manufacturer
management_tool,tool
bn:02517773n,combat_helmet
bn:00797363n,tracked_tractor
recorder,equipment
bn:03188715n,other_farm_machinery
semi_truck,truck
assembly,equipment
switching_device,device
bn:03610060n,laboratory_equipment
planet_search_device,search_device
transportation_system,system
manufacturer,equipment
equipment_vehicle,vehicle
bn:00062388n,mechanical_device
industry,equipment
counter_tube,tube
mixer,equipment
radar_receiver,receiver
bn:02867706n,portable_measurement_instrument
military_mobility_vehicle,mobility_vehicle
bn:01125398n,air_cargo
bn:03490103n,facility
reinforced_case,case
bn:01239028n,airborne_data_recorder
instruments,equipment
bn:02125674n,image_sensor
british_military_vehicle,military_vehicle
pressurized_device,device
bn:03317906n,electronic_test_equipment
japanese_manufacturer,manufacturer
operator,equipment
bn:00760781n,electronic_device
bn:00019904n,footwear
bn:02284169n,diesel_engine_manufacturer
bn:02145633n,tank_transporter
optical_transient_imaging_system,transient_imaging_system
square_tool,tool
bn:00065438n,non-contacting_device
navigational_device,device
basic_personal_protective_equipment,personal_protective_equipment
data_recorder,recorder
bn:03257297n,army_current_combat_helmet
bn:00016479n,jewelry
bn:01741070n,optical_instrument
greek_truck_manufacturer,truck_manufacturer
quality_control,control
bn:03274002n,scientific_instrument
bn:02446807n,style_truck
dish_antenna,antenna
appliance,equipment
armored_reconnaissance_vehicle,reconnaissance_vehicle
bn:00009076n,protective_headgear
bn:00009076n,helmet
bn:02352827n,heavy_truck_manufacturer
general-purpose_truck,truck
bn:01330600n,facility
corrective_lens,lens
bn:03580550n,french_artillery_tractor
bn:00028636n,open-topped_box
bn:00028636n,box-shaped_container
bn:00028636n,boxlike_container
transport_truck,truck
antenna,equipment
storage,equipment
refracting_telescope,telescope
field,equipment
articulated_transport_vehicle,transport_vehicle
plating_system,system
bn:01329041n,cargo
equipment_machine,machine
bn:00073324n,device
magnifying_device,device
large_vessel,vessel
bn:00059211n,device
bn:00625593n,trainload_freight_operator
bn:03115246n,pressure_suit
telescope_facility,facility
bn:03882526n,adhesive_tape
bn:03659795n,electro-mechanical_device
armored_vehicle,vehicle
bn:01082946n,system
inertial_navigation_system,navigation_system
bn:00069470n,measuring_instrument
additional_scale,scale
high_temperature_device,temperature_device
bn:02786851n,electronic_sensor
medical_device,device
solid_coupling,coupling
bn:00017041n,storage
bn:00017041n,storage_room
popular_ins-based_automation_system,ins-based_automation_system
half-track_artillery_tractor,artillery_tractor
standardized_steel_box,steel_box
bn:00027051n,device
bn:01529978n,cargo
bn:00054025n,device
bn:00139811n,mechanical_device
bn:00030143n,transducer
class_heavy-duty_truck,heavy-duty_truck
manufacturing_company,company
display_system,system
sound_recording_apparatus,recording_apparatus
electro-optical_device,device
bn:03834098n,navigation_system
bn:02126581n,mail_delivery
bn:00058768n,vessel
bn:00058768n,ship
bn:00058768n,tanker
bn:00080941n,garment
bn:00080941n,close-fitting_garment
large_crate,crate
bn:02727025n,portable_detection_device
bn:00744052n,proprietary_gauge_technology
bn:03451864n,electronic_proximity_sensor
bn:00218644n,device
headgear,equipment
cable,equipment
technical_device,device
bn:00007477n,technology
vancouver-based_canadian_manufacturer,canadian_manufacturer
bn:02522325n,electro-optical_device
proprietary_gauge_technology,gauge_technology
row_crop_tractor,crop_tractor
bn:00008872n,container
aircraft_cockpit,cockpit
bn:00342409n,electric_heating_device
bn:01060948n,device
bn:00071517n,device
bn:00071517n,instrument
bn:00071517n,optical_instrument
measuring_tool,tool
integrated_manufacturer,manufacturer
imaging_system,system
military_combat_helmet,combat_helmet
bn:00184784n,navigation_system
passive_imaging_system,imaging_system
truck_manufacturing,manufacturing
bn:00029109n,truck
bn:00013336n,device
bn:00013336n,apparatus
stiff_protective_garment,protective_garment
packing_material,material
continuous_track,track
bn:02312014n,michigan_based_truck_manufacturer
bn:00744433n,optical_system
gantry_crane,crane
bn:03578521n,used_chemistry_apparatus
bn:00613824n,automated_telephone_system
prime_mover_vehicle,mover_vehicle
control_center,center
beacon,equipment
bn:00776885n,measuring_device
bn:02219798n,personal_safety_device
proximity_sensor,sensor
bn:01705266n,cargo
aperture_schmidt_camera,schmidt_camera
truck/lorry_manufacturer,manufacturer
drive_vehicle,vehicle
bn:01312018n,electronic_device
trainload_freight_operator,freight_operator
bn:00027986n,laborer
bn:00027986n,heavy_equipment_machine
warning_system,system
flat_transport_structure,transport_structure
sensing_technology,technology
bn:00903560n,laboratory_instrument
ccd_imaging_sensor,imaging_sensor
agricultural_tractor,tractor
vehicle_propulsion,propulsion
french_manufacturer,manufacturer
bus_specification,specification
bn:00071111n,construction
unconsolidated_material,material
wheeled_patrol_vehicle,patrol_vehicle
tractor_manufacturer,manufacturer
bn:01314385n,test_equipment
bn:00003541n,measuring_instrument
bn:00076269n,small_porous_bag
bn:00076269n,small_porous_sealed_bag
bn:00076269n,porous_sealed_bag
bn:01546269n,device
flexible_medical_instrument,medical_instrument
astronomical_telescope_system,telescope_system
bn:02783523n,simple_tool
lens_manufacturing_company,manufacturing_company
magnifying_optical_device,optical_device
artillery_tractor,tractor
company,equipment
bn:01929897n,device
optical_apparatus,apparatus
bn:00550431n,call_simulating_device
metal_plate,plate
bn:03320842n,system
bn:01786829n,overhead_crane
protective_suit,suit
bn:03263149n,rectangular_container
bn:03529883n,x_mine-protected_vehicle
box-shaped_container,container
major_equipment_manufacturer,equipment_manufacturer
small_container,container
bn:02682323n,shoe
temperature_device,device
processing,equipment
bn:03426624n,general-purpose_truck
flexible_band,band
ins-based_automation_system,automation_system
optical_instrument,instrument
information,equipment
bn:00072488n,packaging
avoidance_system,system
×_utility_vehicle,utility_vehicle
sealed_container,container
bn:03441451n,simple_spectroscopic_device
of-ton_trucks,trucks
bn:00484255n,artillery_tractor
bn:00835780n,electronic_device
wheeled_armored_vehicle,armored_vehicle
airborne_data_recorder,data_recorder
horn_antenna,antenna
management_device,device
bn:01969135n,vehicle
bn:03691294n,optical/near-infrared_reflecting_telescope
telephone_system,system
bn:00591528n,chemical_sensor
bn:03425911n,off-road_truck
mover_vehicle,vehicle
radar,equipment
paper,equipment
bn:03300132n,semiconductor_device
bn:00430981n,device
style,equipment
bn:01584774n,construction_vehicle
german_passive_radar_receiver,passive_radar_receiver
bn:03486272n,specialised_fire_engine
personal_armor,armor
bn:00060122n,large_crate
lens_manufacturer,manufacturer
bn:00876120n,primitive_underwater_rebreather
lightweight_cloth-covered_helmet,cloth-covered_helmet
gravity_device,device
bn:03696458n,wheel_drive
reflectance_imaging,imaging
food,equipment
bn:01268242n,measuring_instrument
bn:00072502n,device
bn:00072502n,dispenser
fire_engine,engine
bn:00065912n,device
bn:00065912n,direction_finder
automotive_vehicle,vehicle
direction_finder,finder
collection_device,device
bn:01449574n,system
light_construction_equipment,construction_equipment
trolleybus-like_vehicle,vehicle
bn:02875168n,device
bn:02420312n,hand
bn:01624563n,british_vehicle
bn:00044347n,instrument
tank_transporter,transporter
laboratory_device,device
trailer,equipment
weight,equipment
work_clothing,clothing
optical_lens,lens
american_equipment_manufacturer,equipment_manufacturer
african_armored_personnel_carrier,armored_personnel_carrier
round_tower,tower
bn:03183002n,vehicle
phytometric_device,device
bn:00577758n,device
electrical_system,system
bn:03254654n,analytical_device
distillation_apparatus,apparatus
haulage_contractor,contractor
bn:03212170n,truck
bn:00252215n,control_system
fiber,equipment
bn:00071958n,heavy_vehicle
bn:00071958n,tractor
bn:00071958n,vehicle
other_farm_machinery,farm_machinery
bn:00733685n,telescope
bn:02302097n,space_suit
cockpit,equipment
base,equipment
imaging,equipment
electronic_radio-frequency_signal_generator,radio-frequency_signal_generator
bn:00054024n,kitchen_utensil
bn:00984904n,tank
similar_device,device
airborne_navigation_system,navigation_system
disk_drive,drive
states_transportable_vehicle,transportable_vehicle
bn:02539257n,electrical_test_equipment
bn:03629773n,tractor
bn:02437863n,military_vehicle
bn:00060531n,reflective_device
datalink_system,system
dutch_manufacturing_company,manufacturing_company
bn:03699402n,heavy_vehicle_tractor
bn:01874869n,construction_equipment
bn:00252319n,navigation_system
3-wheeled_tractor_unit,tractor_unit
bn:03810257n,automobile
bn:00050861n,instrument
speedometer,equipment
automobile,equipment
metal_container,container
paint,equipment
iranian_harvester_manufacturer,harvester_manufacturer
french_truck_manufacturer,truck_manufacturer
innovative_medium-sized_german_manufacturer,medium-sized_german_manufacturer
laboratory_instrument,instrument
portuguese_vehicle,vehicle
conduit,equipment
bn:01289473n,modified_refracting_telescope
bn:00070410n,trailer
light_sensor,sensor
bn:03791625n,electronic_device
american_avionics_manufacturer,avionics_manufacturer
protective_helmet,helmet
part,equipment
scientific_device,device
bn:00040680n,navigational_system
bn:00040680n,space-based_navigation_system
bn:00040680n,satellite_navigation
bn:00040680n,system
bn:00035708n,padded_helmet
bn:02364779n,truck_manufacturer
bn:02364779n,russian_truck_manufacturer
bn:00014178n,calf-length_boot
electronic/optical_instrument,instrument
projection_technology,technology
bn:03599282n,device
powerful_tractor,tractor
dispenser,equipment
united_wagon_manufacturer,wagon_manufacturer
bn:00037590n,counter_instrument
research_facility,facility
small_movable_scale,movable_scale
railroad_car,car
wagon_manufacturer,manufacturer
freight_operator,operator
transport_structure,structure
bn:00357954n,israeli_manufactured_off-road_vehicle
south_african_armored_personnel_carrier,african_armored_personnel_carrier
illuminated_image_sensor,image_sensor
bn:00037405n,device
bn:00037405n,mask
naval_weaponry,weaponry
bn:00042364n,sperry
bn:01605037n,artillery_tractor
bn:00003141n,instrument
bn:00003141n,apparatus
heavy_engineering_vehicle,engineering_vehicle
bn:03225394n,horse_delivery_system
dome-shaped_magnifying_device,magnifying_device
bn:00061627n,instrument
bn:00061627n,optical_instrument
proprietary_charge-coupled_device,charge-coupled_device
bn:00028893n,type
bn:00028893n,cylindrical_container
bn:00028893n,cylindrical_metal_container
bn:00066841n,type
bn:00066841n,telescope
bn:03202957n,small_trailer
bn:00216746n,device
gyro-stabilized_optical_instrument,optical_instrument
bn:03647113n,light_commercial_truck
bn:00214035n,optical_device
bn:00080228n,instrument
bn:00658886n,large_gantry_crane
bn:00899089n,device
collapsible_canopy,canopy
bn:00042220n,equipment
bn:00042220n,protective_device
steel_military_combat_helmet,military_combat_helmet
forces_main_combat_helmet,main_combat_helmet
bn:00001112n,device
small_electronic_device,electronic_device
iranian_truck_manufacturer,truck_manufacturer
camera_manufacturing_company,manufacturing_company
powerful_hardware_device,hardware_device
bn:03250872n,system
bn:00047015n,measuring_instrument
bn:00047015n,integrating_device
bn:00011203n,laboratory
bn:00011203n,tool
bn:00011203n,powered_mixer
bn:00011203n,type
army_current_combat_helmet,current_combat_helmet
bn:03518282n,armored_military_vehicle
bn:00500873n,ultra_dump_truck
bn:02072403n,photo_sensor
bn:03218225n,major_equipment_manufacturer
ornamental_garment,garment
multinational_manufacturer,manufacturer
goods_vehicle,vehicle
bn:03753955n,indian_multinational_automotive_manufacturing_company
bn:03733546n,american_manufacturer
bn:03592588n,sealed_container
bn:00875000n,device
domestic_electricity,electricity
bn:00004031n,device
bn:00004031n,instrument
bn:02270636n,apparatus
tanker,equipment
flexible_fiber,fiber
bn:00999137n,temperature_recording_system
bn:00080661n,utensil
bn:00080661n,portable_container
test_equipment,equipment
bn:01760744n,device
bn:02291832n,device
bn:00068776n,equipment
bn:00023363n,loose-fitting_protective_garment
bn:02914840n,medical_laboratory_instrument
bn:00286275n,heavy_goods_vehicle
bn:00457905n,device
bn:02017255n,inertial_navigation_system
burner,equipment
bn:03359649n,facility
bn:03671594n,technology
venezuelan_multipurpose_military_vehicle,multipurpose_military_vehicle
civilian_half-track_tractor,half-track_tractor
bn:01903156n,device
powered_mixer,mixer
floating_device,device
orthopedic_medical_device,medical_device
ophthalmic_lens_manufacturer,lens_manufacturer
bn:00077453n,container
integrated_cockpit_system,cockpit_system
navigation_device,device
bn:00397106n,depot
bn:01235923n,astronomy_laboratory
bn:03529658n,south_african_armored_personnel_carrier
electronic_proximity_sensor,proximity_sensor
bn:02107351n,automated_warning_system
bn:02083021n,device
bn:02083021n,measuring_instrument
bn:00037148n,instrument
small_magnification_device,magnification_device
bn:00081752n,vacuum_tube
bn:00006660n,telescope
bn:00011892n,sensitive_device
vessel,equipment
belt,equipment
bn:03503258n,large_motor_vehicle
bn:03511795n,mechanism
bn:01176850n,american_equipment_manufacturer
ukrainian_multi-purpose_off-road_vehicle,multi-purpose_off-road_vehicle
all-in-one_plating_system,plating_system
lightweight_handheld_collapsible_canopy,handheld_collapsible_canopy
converter_system,system
small_appliance,appliance
truck_manufacturer,manufacturer
bn:02027249n,electronic_test_equipment
bn:02245371n,device
calibrated_radio_receiver,radio_receiver
american_transport_truck,transport_truck
position_sensor,sensor
bn:00251559n,equipment
field_cell_counting_system,cell_counting_system
small_handheld_device,handheld_device
large_sport_utility_vehicle,sport_utility_vehicle
bn:00335195n,american_wheeled_military_vehicle
bn:03217398n,measuring_device
bn:02013066n,monocular_night_vision_device
bn:01488146n,airborne_imaging_sensor
bn:02439092n,container
bn:00055004n,vehicle
bn:00073534n,small_container
armored_personnel_carrier,personnel_carrier
bn:01618955n,semiconductor_device
bn:00002723n,device
diagnostic_device,device
electronic_sensor,sensor
bn:00022875n,paper-based_material
bn:00022875n,cardboard
airport_procedure,procedure
bn:03090809n,optical_device
eyewear,equipment
bn:03150977n,computer-mediated_reality_system
astronomy_installation,installation
bn:00550024n,combat_vehicle
transportable_vehicle,vehicle
fiber-optic_device,device
german_armored_military_mobility_vehicle,armored_military_mobility_vehicle
padded_gear,gear
onboard_computer_device,computer_device
construction_equipment,equipment
delivery_system,system
bn:00395799n,six-wheel-drive_semi-amphibious_off-road_vehicle
bn:00034652n,fire_apparatus
bn:00034652n,vehicle
bn:00949764n,passive_imaging_system
bn:03273888n,instrument
bn:01383652n,imaging_technique
half-track_tractor,tractor
industrial_vehicle,vehicle
electromechanical_apparatus,apparatus
bn:03426363n,device
machinery,equipment
integrated_instrument_system,instrument_system
bn:02986923n,commercial_vehicle
bn:03389768n,engineering_vehicle
automated_warning_system,warning_system
electronic_instrument,instrument
vehicle_maker,maker
man_sleeveless_garment,sleeveless_garment
concept_combat_vehicle,combat_vehicle
bn:03189495n,imaging_system
discipline,equipment
interferometric_instrument,instrument
night_vision_device,vision_device
mobility_vehicle,vehicle
contractor,equipment
bn:00022384n,common_piece
bn:00022384n,mechanical_arrangement
bn:00022384n,continuous_flexible_band
bn:00022384n,moving_belt
bn:03160730n,venezuelan_multipurpose_military_vehicle
voltmeter,equipment
finder,equipment
bn:01389265n,management_tool
bn:01523142n,technology
bn:02028219n,concept_combat_vehicle
bn:02100575n,tone
signal,equipment
iran-based_manufacturer,manufacturer
glove,equipment
bn:00029303n,device
exclusive_technology,technology
specialised_packing_material,packing_material
microscopic_device,device
sight,equipment
closed-circuit_breathing_apparatus,breathing_apparatus
protective_gear,gear
bn:00558642n,soviet_artillery_tractor
scale,equipment
jewelry,equipment
bn:00022129n,freight_transport
bn:00022129n,large_case
bn:00049313n,protective_garment
bn:00049313n,protective_gear
bn:03810027n,tactical_military_vehicle
bn:02539232n,electronic_test_equipment
rectangular_container,container
radiometer,equipment
based_truck_manufacturer,truck_manufacturer
bn:00070303n,ground
bn:00899665n,body_garment
bn:01237553n,mechanical_device
bn:01320197n,mechanical_device
chinese_state-owned_automotive_manufacturing_company,state-owned_automotive_manufacturing_company
american_manufacturer,manufacturer
commercial_vehicle,vehicle
bn:02879625n,device
range,equipment
armored_transport_vehicle,transport_vehicle
ground-based_approach_system,approach_system
bn:00016773n,measuring_instrument
bn:00016773n,type
bn:00073263n,device
charge-coupled_device,device
experimental_measuring_instrument,measuring_instrument
bn:03779424n,wheeled_armored_personnel_carrier
bn:01941951n,row_crop_tractor
analysis_tool,tool
adhesive_tape,tape
spanish_manufacturer,manufacturer
bn:03876092n,truck
computer-mediated_reality_system,reality_system
bn:02119572n,electronic_device
bn:00000894n,compound_lens_system
bn:03113741n,german_multinational_manufacturer
bn:03114613n,sensor
bn:00918274n,wheeled_armored_vehicle
bn:00726654n,container
american_telescope_manufacturer,telescope_manufacturer
navigation_aid,aid
large_shipping_container,shipping_container
bn:03745390n,position_sensor
angle_measuring_device,measuring_device
bn:03261846n,image_sensor
bn:00923744n,british_manufacturer
suit,equipment
bn:00029117n,optical_instrument
protective_headgear,headgear
portable_platform,platform
bn:01422321n,technology
bn:01268010n,magnifying_optical_device
line,equipment
bn:02034694n,apparatus
reflective_device,device
bn:02194904n,laboratory_equipment
heavy_equipment,equipment
bn:03529668n,×_mine-protected_armored_personnel_carrier
heavy_tractor_unit,tractor_unit
wooden_fitting,fitting
bn:02813544n,device
automated_telephone_system,telephone_system
bn:00818837n,optical_system
bn:01230815n,laboratory_apparatus
recording_system,system
schmidt_camera,camera
engineering,equipment
bn:01536329n,italian_dump_truck/lorry_manufacturer
communications_system,system
bn:03857295n,russian_all-road_military_truck
bn:00010508n,hand-held_device
bn:00010508n,optical_instrument
bn:03180619n,electronic_equipment
improvised_fighting_vehicle,fighting_vehicle
automation_system,system
bn:00671029n,engineering_vehicle
optical_system,system
clock_device,device
bn:00026876n,mechanical_device
telescope_system,system
hot-spot_imaging_device,imaging_device
bn:01781661n,pressure_suit
german_manufacturer,manufacturer
tracked_artillery_tractor,artillery_tractor
impermeable_garment,garment
bn:00015946n,wearable_device
bn:00015946n,piece
bn:00015946n,monitoring_device
lens,equipment
bn:01239094n,improvised_fighting_vehicle
bn:00348609n,manufacturing
construction_vehicle,vehicle
bn:02422587n,worldwide_manufacturer
structure,equipment
shipping_container,container
scientific_installation,installation
bn:01067072n,forces_main_combat_helmet
bn:00467812n,artillery_tractor
used_chemistry_apparatus,chemistry_apparatus
bn:00028322n,measuring_instrument
optical_telescope,telescope
major_discipline,discipline
analytical_device,device
heavy_goods_vehicle,goods_vehicle
expendable_reconnaissance_device,reconnaissance_device
bn:03605430n,drive_vehicle
unarmoured_off-road_vehicle,off-road_vehicle
bn:00586139n,device
imaging_device,device
bn:00053784n,small_cardboard_box
bn:00048023n,small_cylindrical_container
bn:00048023n,rigid_cylindrical_container
cardboard_box,box
bn:03803509n,helmet
bn:00074288n,device
bn:00074288n,apparatus
bn:00024362n,farm_implement
bn:00061338n,container
hardware_device,device
simple_container,container
bn:01622650n,surveying_instrument
bn:00061249n,device
bn:01283682n,soviet_era_artillery_tractor
truck_manufacturing_company,manufacturing_company
bag_manufacturer,manufacturer
bn:03718955n,vehicle_manufacturing_company
bn:02404630n,optical_device
light_general-purpose_armored_drive_vehicle,general-purpose_armored_drive_vehicle
bn:03606262n,electronic_device
bn:00015292n,food
movable_scale,scale
wheeled_armored_personnel_carrier,armored_personnel_carrier
close-fitting_garment,garment
bn:00066809n,reflective_surface
bn:00066809n,optical_telescope
bn:00066809n,telescope
bn:00066809n,improvised_reflective_surface
bn:01075035n,ancient_system
bn:03842741n,device
specialized_apparatus,apparatus
bn:01267482n,heavy_tractor_unit
upper-body_garment,garment
bn:03543879n,calibrated_radio_receiver
freight,equipment
bn:01410226n,gas-filled_electron_tube
bn:00197894n,electronic_system
bn:02176395n,astronomical_facility
bn:00054782n,technique
bn:01989673n,laboratory_equipment
bn:01645907n,lawn_tractor
cylindrical_shipping_container,shipping_container
bn:02210572n,packaging
bn:00073058n,garment
bn:00073058n,pressure_suit
specialised_fire_engine,fire_engine
bn:00052576n,flight_instrument
bn:00052576n,speedometer
alarm_device,device
apparatus,equipment
bn:01794916n,towing_vehicle
bn:02033414n,chinese_state-owned_automotive_manufacturing_company
electronic_detection_system,detection_system
protective_garment,garment
bus_manufacturer,manufacturer
electronic_system,system
bn:00050072n,optical_amplification
historical_astronomical_instrument,astronomical_instrument
bn:03690319n,manufacturing
indicator,equipment
bn:01578456n,flux_sensor
bn:03137449n,agricultural_machinery
optical/near-infrared_reflecting_telescope,reflecting_telescope
bn:00513984n,equipment
kraft_paper,paper
large_domed_telescope_facility,domed_telescope_facility
bn:02731652n,new_packaging_technology
measurement_device,device
fundamental_part,part
bn:01283864n,large_manufacturer
state-owned_automotive_manufacturing_company,automotive_manufacturing_company
detection_system,system
implement,equipment
maker,equipment
steam-powered_road_vehicle,road_vehicle
weather_surveillance,surveillance
bn:03619538n,lens
bn:00891402n,dosimeter
substantial_metal_plate,metal_plate
bn:00021422n,lens_system
bn:00670032n,device
bn:00670032n,range
off-road_truck,truck
large_powerful_tractor,powerful_tractor
bn:03050307n,wheeled_patrol_vehicle
camera,equipment
vehicle,equipment
video_camera,camera
bench-top_device,device
bn:03483900n,tool
bn:03483900n,operated_device
bn:00016924n,disk_drive
bn:03598606n,electronic_test_equipment
multi-national_manufacturer,manufacturer
bn:03325897n,system
bn:03558052n,truck_manufacturing
bn:01970418n,major_projection_generation_technology
bn:00755482n,solid-state_device
bn:02545062n,container
particle_detector,detector
safety_equipment,equipment
personal_safety_device,safety_device
reflecting_telescope,telescope
bn:00518755n,angle_measuring_device
bn:02226833n,motor_vehicle
organic_ophthalmic_lens_manufacturer,ophthalmic_lens_manufacturer
information_system,system
proof,equipment
control,equipment
process,equipment
bn:02550350n,combat_helmet
multi-purpose_traffic_sensor,traffic_sensor
mounted_video_camera,video_camera
transport_vehicle,vehicle
short-range_bus_specification,bus_specification
bn:01013974n,equipment
bn:00002411n,information
bn:00002411n,signal
bn:00002411n,alarm_signal
bn:00054551n,device
bn:00054551n,detector
computing_device,device
multi-layer_packaging_technology,packaging_technology
small_trailer,trailer
bn:00017599n,medieval_plate_armor
arrangement,equipment
bn:03393025n,electronic_instrument
bn:00015426n,device
bn:03213096n,diagnostic_device
light_commercial_vehicle,commercial_vehicle
bn:03302638n,mechanism
electric_vehicle,vehicle
bn:00073621n,paint
bn:02332162n,construction_equipment
bn:03393232n,system
dosimeter,equipment
bn:00030280n,simple_device
military_vehicle,vehicle
bn:00034858n,camera
simple_small_magnification_device,small_magnification_device
bn:01396827n,multi-national_manufacturer
steerable_dish_antenna,dish_antenna
bn:03604958n,first_detection_radar
bn:00027090n,electronic_voltmeter
sealed_bag,bag
detection_instrument,instrument
bn:02993865n,device
bn:00586109n,rangefinder
bn:00019929n,sunluxy_ccv_cam
bn:00019929n,mounted_video_camera
diameter_deployable_passive_electrical_hot-spot_imaging_device,deployable_passive_electrical_hot-spot_imaging_device
safety_device,device
bn:00069738n,optical_instrument
ships,equipment
bn:00057639n,optical_device
equipment_manufacturer,manufacturer
bn:01283850n,basic_personal_protective_equipment
rescue_vehicle,vehicle
material,equipment
bn:03551268n,electromechanical_apparatus
bucket-equipped_machine,machine
bn:01421000n,porous_kraft_paper
bn:02379291n,sensing_device
transmitter,equipment
bn:00078920n,lightweight_handheld_collapsible_canopy
bn:00721968n,tracked_vehicle
sensing_device,device
ex-soviet_astronomy_installation,astronomy_installation
bn:00011278n,flight_instruments
six-wheel-drive_semi-amphibious_off-road_vehicle,semi-amphibious_off-road_vehicle
multirole_transport_vehicle,transport_vehicle
service_mail_bag,mail_bag
bn:00269521n,sonar
bn:00016740n,continuous_track
bn:00016740n,vehicle_propulsion
bn:00016740n,system
bn:00016740n,metal_belt
bn:00996193n,inertial_navigation_system
antique_electronic_component,electronic_component
bn:03036138n,states_service_mail_bag
mine-protected_vehicle,vehicle
measure,equipment
freight_transport,transport
bn:02628685n,optical_device
non-contact_device,device
transporter_vehicle,vehicle
bn:01284185n,soviet_era_artillery_tractor
bn:03150871n,navigation_system
armor,equipment
bn:00323788n,printed_material
bn:01216642n,drive_all-terrain_vehicle
bn:03303835n,projector
bn:03761418n,device
bn:03174588n,type
reduction_device,device
radar_system,system
instrument_system,system
bn:00041257n,laboratory_equipment
utensil,equipment
bn:03628171n,large_domed_telescope_facility
detection_device,device
capsule-based_bulletproof_vehicle,bulletproof_vehicle
bn:00067460n,glassware_device
bn:00062666n,cap
bn:00062666n,lightweight_cloth-covered_helmet
bn:03797243n,avoidance_system
medium-sized_german_manufacturer,german_manufacturer
bn:02630045n,vehicle_manufacturing_company
bn:00866391n,laboratory_equipment
bn:00013590n,cylindrical_shipping_container
bn:03747656n,device
bn:02303775n,type
bn:02303775n,radio_beacon
point_messenger_system,messenger_system
bn:01459812n,american_telescope_manufacturer
developed_system,system
soviet_era_artillery_tractor,era_artillery_tractor
bn:03231827n,electronic_device
bn:00495914n,device
gyroscopic_device,device
six-wheeled_artillery_tractor,artillery_tractor
bn:00453274n,image_sensor
electronic_equipment,equipment
sport_utility_vehicle,utility_vehicle
bn:00997655n,integrated_instrument_system
sensor_device,device
rigid_container,container
bn:01465501n,ton_×_utility_vehicle
bn:00024593n,money
bn:02754286n,airport_procedure
bn:02754286n,procedure
refractometer,equipment
gear,equipment
ancient_system,system
bn:00560334n,radar_system
bn:02777189n,scientific_device
industrial_truck,truck
fighting_vehicle,vehicle
specialized_road_vehicle,road_vehicle
electrical_test_equipment,test_equipment
medical_instrument,instrument
railfreight_operator,operator
states_service_mail_bag,service_mail_bag
logistics_vehicle,vehicle
bn:03791872n,technologically-advanced_processing
conveyor_system,system
transducer,equipment
articulated_vehicle,vehicle
bn:00073046n,garment
bn:00073046n,helmet
bn:03868826n,astronomical_telescope_system
bn:03024506n,manufacturing_unit
bn:01450258n,device
orthopedic_device,device
bn:00064465n,optical_instrument
movable_device,device
bn:01769188n,emergency_vehicle
one-piece_garment,garment
operated_device,device
bulletproof_vehicle,vehicle
telescope_manufacturer,manufacturer
mechanism,equipment
bn:00030097n,protective_padded_gear
bn:00059634n,instrument
protective_eyewear,eyewear
detector,equipment
bn:03437376n,onboard_computer_device
bn:01139550n,protective_equipment
integrated_instrumentation_system,instrumentation_system
bn:00016047n,freight
bn:00016047n,total_weight
bn:00016047n,transport
bn:00021637n,apparatus
device,equipment
bn:03401419n,optical_device
mine-protected_armored_personnel_carrier,armored_personnel_carrier
storage_room,room
bn:00035905n,small_industrial_vehicle
bn:00035905n,powered_industrial_truck
aerial_vehicle,vehicle
bn:03091243n,american_transport_truck
special_flow_technique,flow_technique
radio_antenna,antenna
reflective_surface,surface
crate,equipment
bn:03540118n,truck
bn:03403179n,device
overall_garment,garment
bn:02006808n,belarusian_manufacturer
duty_truck,truck
bn:01546255n,radiometer
bn:00751135n,sensor
heavy_truck_manufacturer,truck_manufacturer
bn:00027073n,machine
bn:00027073n,bucket-equipped_machine
bn:00027073n,tool
bn:00027073n,construction_equipment
bn:00027073n,vehicle
japanese_automotive_manufacturer,automotive_manufacturer
mechanical_assembly,assembly
electronic_processing_device,processing_device
bn:00023594n,large_shipping_container
photo_sensor,sensor
multi-purpose_pick-up_truck,pick-up_truck
optical_device,device
tape,equipment
detection_radar,radar
bn:03317842n,interferometric_instrument
specialized_vehicle,vehicle
astronomical_telescope,telescope
bn:03455344n,device
heavy_vehicle,vehicle
agricultural_machinery_manufacturer,machinery_manufacturer
bn:00031321n,military
bn:00031321n,equipment
bn:00077847n,vehicle
bn:00012879n,construction_base
bn:00012879n,wooden_board
bn:01730019n,truck_manufacturer
bn:02535242n,based_equipment_manufacturer
hand-held_device,device
bn:00671939n,conveyor_system
trucks,equipment
bn:03580204n,laboratory_equipment
bn:03699110n,technology
autonomous_astronomical_telescope,astronomical_telescope
total_weight,weight
bn:00580174n,technique
bn:00046594n,navigation_aid
bn:00046594n,navigation
british_truck_manufacturing_company,truck_manufacturing_company
bn:01852777n,overall_garment
tabletop_small_appliance,small_appliance
viewing_device,device
bn:00491841n,artillery_tractor
sleeveless_upper-body_garment,upper-body_garment
bn:02616294n,imaging
capable_long-range_airborne_navigation_system,long-range_airborne_navigation_system
bn:02011389n,device
bn:02388121n,american_truck_manufacturer
vacuum_tube_device,tube_device
high-end_american_telescope_manufacturer,american_telescope_manufacturer
bn:00074219n,optical_device
combat_helmet,helmet
bn:00150513n,automated_warning_system
libyan_manufacturer,manufacturer
next-generation_system,system
bn:00037527n,instrument
bn:00037527n,measuring_instrument
main_combat_helmet,combat_helmet
aircraft,equipment
bn:03257541n,agricultural_machinery_manufacturer
bn:01321524n,apparatus
control_equipment,equipment
bn:00045152n,high_mobility
bn:00051833n,navigation_tool
bn:00051833n,floating_device
canopy,equipment
bn:02412777n,device
bn:03478560n,combat_helmet
spectroscopic_device,device
bn:00060114n,material
denim,equipment
bn:03733548n,american_manufacturer
japan-based_manufacturer,manufacturer
packaging,equipment
rebreather,equipment
bn:00655782n,major_manufacturer
bn:00065920n,device
bn:00065920n,astronomical_telescope
bn:00065920n,directional_radio_antenna
bn:01972789n,handheld_device
bn:00873222n,device
bn:03238824n,astronomical_telescope
electron_tube,tube
lightweight_wheel_drive,wheel_drive
hybrid_diesel-electric_commercial_truck,diesel-electric_commercial_truck
protective_device,device
global_truck_manufacturer,truck_manufacturer
large_round_tower,round_tower
bn:00679099n,steel_military_combat_helmet
rangefinder,equipment
bn:00063868n,measuring_instrument
automotive_manufacturing_company,manufacturing_company
bn:00064272n,protective_suit
tape_measure,measure
bn:00037589n,device
bn:00037589n,counter_tube
bn:00037589n,particle_detector
bn:00293902n,vehicle
bn:00982694n,light_construction_equipment
response_vehicle,vehicle
bn:02237556n,iranian_truck_manufacturer
bn:01738507n,battery_electric_vehicle
israeli_manufactured_off-road_vehicle,manufactured_off-road_vehicle
passive_fiber-optic_device,fiber-optic_device
bn:00015103n,sealed_container
bn:01148698n,small_wooden_fitting
surface,equipment
hardware,equipment
bn:00030154n,device
bn:00030154n,domestic_electricity
turkish_manufacturer,manufacturer
bn:03277431n,duty_civilian_half-track_tractor
viewing_apparatus,apparatus
flight_instruments,instruments
bn:01799916n,personal_protective_equipment
bn:01078510n,terrestrial_navigation_system
bn:00078501n,woodworking
bn:02413158n,laboratory_equipment
bn:03101909n,device
medieval_plate_armor,plate_armor
bn:00459050n,british_vehicle
precision_instrument,instrument
bn:00440671n,measurement_system
practice,equipment
bn:00052815n,bag
bn:00052815n,system
head_gear,gear
secure_storage_container,storage_container
all-weather_landing_system,landing_system
bn:03755356n,portable_platform
bn:03755356n,flat_transport_structure
bn:00013142n,process
unmanned_aerial_vehicle,aerial_vehicle
center,equipment
bn:03886201n,combat_helmet
patrol_vehicle,vehicle
pressure_gauge,gauge
bn:03158511n,optical_sensing_technology
bn:00477924n,global_truck_manufacturer
deployable_passive_electrical_hot-spot_imaging_device,passive_electrical_hot-spot_imaging_device
bn:03141343n,device
bn:03141343n,retroreflector
messenger_system,system
canadian_manufacturer,manufacturer
electric_heating_device,heating_device
bn:00078171n,construction_equipment
surveillance_technology,technology
bn:00225210n,sensor
traffic_device,device
bn:00382782n,powerful_hardware_device
vacuum_distillation_apparatus,distillation_apparatus
bn:02791755n,optical_transient_imaging_system
open-topped_box,box
bn:03100729n,non-invasive_method
high_mobility,mobility
called_haulage_contractor,haulage_contractor
weighted_garment,garment
bn:03650068n,simple_computing_device
bn:00005143n,ground-based_approach_system
bn:02813297n,six-wheeled_artillery_tractor
bn:01369065n,electronic_radio-frequency_signal_generator
bn:03096203n,military_logistics_vehicle
emergency_vehicle,vehicle
bn:03143340n,radar_display
bn:00910515n,laboratory_equipment
bn:00050673n,optical_device
bn:00050673n,transparent_optical_device
bn:03383560n,early_radar_system
bn:02641667n,cargo
construction_base,base
early_radar_system,radar_system
bn:01947608n,british_truck_manufacturing_company
bn:01677171n,steerable_dish_antenna
precise_instruments,instruments
bn:03202517n,device
bn:00076856n,semiconductor_device
bn:03633507n,collision_avoidance_system
bn:02043862n,wheeled_armored_vehicle
transport,equipment
first_armored_capsule-based_bulletproof_vehicle,armored_capsule-based_bulletproof_vehicle
generation_technology,technology
bn:00071117n,industry
bn:00022661n,material
bn:00063285n,optical_device
bn:00027903n,device
bn:00027903n,weighted_garment
bn:03662467n,light_general-purpose_armored_drive_vehicle
bn:03184164n,technology
ccv_cam,cam
bn:02845060n,italian_manufacturer
optimized_hardware,hardware
bn:03894584n,forestry_vehicle
call_simulating_device,simulating_device
bn:00523292n,truck
bn:00050808n,box
bn:00050808n,physical_box
farm_implement,implement
towing_vehicle,vehicle
radio_beacon,beacon
bn:03107536n,tractor
signal_generator,generator
bn:01017150n,integrated_cockpit_system
carrier,equipment
bn:02875464n,device
nationwide_warning_system,warning_system
bn:00973638n,personnel_armor
british_truck_manufacturer,truck_manufacturer
bn:00518323n,heavy_road_vehicle
small_porous_bag,porous_bag
bn:01096135n,aerodynamic_semi_truck
food_packaging,packaging
utility_vehicle,vehicle
whole舑body_imaging_device,imaging_device
electronic_component,component
dump_truck/lorry_manufacturer,truck/lorry_manufacturer
bn:02212488n,technique
bn:00647272n,popular_ins-based_automation_system
bn:02879630n,device
airborne_imaging_sensor,imaging_sensor
bn:01304311n,facility
bn:01556177n,of-ton_trucks
bn:02384519n,vehicle
bn:02974272n,laboratory_glassware
one-piece_container,container
bn:03616155n,viewing_device
bn:00072586n,metal_container
delivery,equipment
construction,equipment
bn:03277724n,heavy_duty_truck
technician,equipment
converter,equipment
bn:03633641n,facility
radio-frequency_signal_generator,signal_generator
piece,equipment
display,equipment
bn:03875295n,device
bn:00013806n,substantial_metal_plate
bn:00013806n,large_powerful_tractor
bn:00013806n,tractor
bn:03434122n,transport_truck
large_horn_antenna,horn_antenna
bn:00782245n,material
bn:03170506n,laboratory_equipment
bn:03135995n,electronic_instrument
military_logistics_vehicle,logistics_vehicle
bn:03797506n,mine-protected_vehicle
farm_machinery,machinery
offroad_technology,technology
space_suit,suit
electronic_test_equipment,test_equipment
bn:00019836n,instrument
bn:00019836n,apparatus
bn:01343709n,field_cell_counting_system
bn:00935727n,whole舑body_imaging_device
bn:02346610n,safety_equipment
simple_spectroscopic_device,spectroscopic_device
laser-based_microscopic_device,microscopic_device
bus_analysis_tool,analysis_tool
bn:03304245n,optical_device
american_wheeled_military_vehicle,wheeled_military_vehicle
bn:01914153n,wheeled_military_vehicle
polish_tracked_artillery_tractor,tracked_artillery_tractor
bn:02300105n,measurement_device
bn:03689534n,viewing_apparatus
vehicle_tractor,tractor
bn:02401199n,delivery_vehicle
bn:02401199n,vehicle
photographic_equipment,equipment
simulating_device,device
binocular_optical_instrument,optical_instrument
transparent_optical_device,optical_device
light_commercial_truck,commercial_truck
public_communications_system,communications_system
coupling,equipment
bn:02778485n,illuminated_image_sensor
bn:02368225n,equipment
bn:03464530n,device
bn:03775384n,french_manufacturer
tractor_unit,unit
class_commercial_vehicle,commercial_vehicle
